EDA SIP
…
EDA SIP

## # A tibble: 12,299 x 17
##    task_number summary     priority raised_by_id assigned_to_id authorised_by_id
##    <chr>       <chr>          <dbl> <chr>        <chr>          <chr>           
##  1 1735        Flag RI on        1 58           58             6               
##  2 1742        Allow RI P        1 58           42             6               
##  3 1971        Fix Invali        2 7            58             6               
##  4 2134        New rows i        5 50           42             6               
##  5 2251        Applicatio       10 46           13             6               
##  6 2283        Remove Llo        1 13           13             58              
##  7 2400        RI Meta_Fi        5 13           13             6               
##  8 2451        Settlement        5 13           58             6               
##  9 2475        Write self        6 13           13             6               
## 10 2499        Seach cont        5 1            26             58              
## #  with 12,289 more rows, and 11 more variables: status_code <chr>,
## #   project_code <chr>, project_breakdown_code <chr>, category <chr>,
## #   sub_category <chr>, hours_estimate <dbl>, hours_actual <dbl>,
## #   developer_id <chr>, developer_hours_actual <dbl>, task_performance <dbl>,
## #   developer_performance <dbl>
…
Entendendo os dados

Qual a distribuio das estimativas? Dos tempos de tarefa? Os tamahos de time? Quantos projetos temos? O que mais lhe parece relevante de explorar antes de comear a trabalhar com perguntas sobre as estimativas e tempos de tarefa das pessoas que trabalharam nas tarefas que os dados descrevem?

## # A tibble: 10,266 x 17
## # Groups:   task_number [10,266]
##    task_number summary     priority raised_by_id assigned_to_id authorised_by_id
##    <chr>       <chr>          <dbl> <chr>        <chr>          <chr>           
##  1 10000       CCC System        1 26           13             58              
##  2 10001       BMS suppor        3 46           42             <NA>            
##  3 10002       Allow matc        5 65           65             58              
##  4 10003       Client Mee        1 66           58             58              
##  5 10004       Sort out C        5 26           26             <NA>            
##  6 10005       Remaining         3 26           26             58              
##  7 10006       Decide (an        3 26           26             <NA>            
##  8 10007       Meeting wi        1 58           58             58              
##  9 10008       EROS Repla        1 58           58             58              
## 10 10009       Live Serve        1 43           43             43              
## #  with 10,256 more rows, and 11 more variables: status_code <chr>,
## #   project_code <chr>, project_breakdown_code <chr>, category <chr>,
## #   sub_category <chr>, hours_estimate <dbl>, hours_actual <dbl>,
## #   developer_id <chr>, developer_hours_actual <dbl>, task_performance <dbl>,
## #   developer_performance <dbl>
…
